<?xml version="1.0" encoding="UTF-8" standalone="no"?>
<!-- Created with Inkscape (http://www.inkscape.org/) -->

<svg
   xmlns:dc="http://purl.org/dc/elements/1.1/"
   xmlns:cc="http://creativecommons.org/ns#"
   xmlns:rdf="http://www.w3.org/1999/02/22-rdf-syntax-ns#"
   xmlns:svg="http://www.w3.org/2000/svg"
   xmlns="http://www.w3.org/2000/svg"
   xmlns:sodipodi="http://sodipodi.sourceforge.net/DTD/sodipodi-0.dtd"
   xmlns:inkscape="http://www.inkscape.org/namespaces/inkscape"
   width="210mm"
   height="297mm"
   viewBox="0 0 210 297"
   version="1.1"
   id="svg1414"
   inkscape:version="0.92.4 (5da689c313, 2019-01-14)"
   sodipodi:docname="wuerfel-innen1.svg">
  <defs
     id="defs1408" />
  <sodipodi:namedview
     id="base"
     pagecolor="#ffffff"
     bordercolor="#666666"
     borderopacity="1.0"
     inkscape:pageopacity="0.0"
     inkscape:pageshadow="2"
     inkscape:zoom="0.49497475"
     inkscape:cx="-279.29106"
     inkscape:cy="281.89002"
     inkscape:document-units="mm"
     inkscape:current-layer="layer1"
     showgrid="false"
     inkscape:window-width="1920"
     inkscape:window-height="986"
     inkscape:window-x="-11"
     inkscape:window-y="-11"
     inkscape:window-maximized="1" />
  <metadata
     id="metadata1411">
    <rdf:RDF>
      <cc:Work
         rdf:about="">
        <dc:format>image/svg+xml</dc:format>
        <dc:type
           rdf:resource="http://purl.org/dc/dcmitype/StillImage" />
        <dc:title />
      </cc:Work>
    </rdf:RDF>
  </metadata>
  <g
     inkscape:label="Ebene 1"
     inkscape:groupmode="layer"
     id="layer1">
    <rect
       style="fill:#f4eed7;fill-opacity:1;stroke-width:0.39337313"
       id="rect1382"
       width="210.34111"
       height="420.94949"
       x="-0.66816795"
       y="-0.33734366" />
    <text
       xml:space="preserve"
       style="font-style:normal;font-weight:normal;font-size:16.93333244px;line-height:1.25;font-family:sans-serif;letter-spacing:0px;word-spacing:0px;fill:#333333;fill-opacity:1;stroke:none;stroke-width:0.26458332"
       x="18.441595"
       y="28.661394"
       id="text5696"><tspan
         sodipodi:role="line"
         id="tspan5694"
         x="18.441595"
         y="28.661394"
         style="fill:#333333;stroke-width:0.26458332">Werkzeuge</tspan></text>
    <text
       xml:space="preserve"
       style="font-style:normal;font-weight:normal;font-size:10.58333302px;line-height:1.25;font-family:sans-serif;letter-spacing:0px;word-spacing:0px;fill:#333333;fill-opacity:1;stroke:none;stroke-width:0.26458332"
       x="15.501633"
       y="49.775681"
       id="text6322"><tspan
         sodipodi:role="line"
         x="15.501633"
         y="49.775681"
         style="fill:#333333;stroke-width:0.26458332"
         id="tspan6988">- Bilder erstellen und mit </tspan><tspan
         sodipodi:role="line"
         x="15.501633"
         y="63.004848"
         style="fill:#333333;stroke-width:0.26458332"
         id="tspan821">  CC Lizenz und Schlagworten </tspan><tspan
         sodipodi:role="line"
         x="15.501633"
         y="76.234016"
         style="fill:#333333;stroke-width:0.26458332"
         id="tspan823">  auf Bilderplattform hochladen</tspan><tspan
         sodipodi:role="line"
         x="15.501633"
         y="89.463181"
         style="fill:#333333;stroke-width:0.26458332"
         id="tspan825" /><tspan
         sodipodi:role="line"
         x="15.501633"
         y="102.69234"
         style="fill:#333333;stroke-width:0.26458332"
         id="tspan827">- Videos erstellen und mit </tspan><tspan
         sodipodi:role="line"
         x="15.501633"
         y="115.92151"
         style="fill:#333333;stroke-width:0.26458332"
         id="tspan829">  CC Lizenz und Schlagworten </tspan><tspan
         sodipodi:role="line"
         x="15.501633"
         y="129.15068"
         style="fill:#333333;stroke-width:0.26458332"
         id="tspan831">  auf Videoplattform hochladen</tspan><tspan
         sodipodi:role="line"
         x="15.501633"
         y="142.37984"
         style="fill:#333333;stroke-width:0.26458332"
         id="tspan833" /><tspan
         sodipodi:role="line"
         x="15.501633"
         y="155.60901"
         style="fill:#333333;stroke-width:0.26458332"
         id="tspan835">- Materialien als Kurs oder Modul </tspan><tspan
         sodipodi:role="line"
         x="15.501633"
         y="168.83818"
         style="fill:#333333;stroke-width:0.26458332"
         id="tspan837">  im Text zusammenfassen und </tspan><tspan
         sodipodi:role="line"
         x="15.501633"
         y="182.06734"
         style="fill:#333333;stroke-width:0.26458332"
         id="tspan839">  als Webseite bereitstellen </tspan><tspan
         sodipodi:role="line"
         x="15.501633"
         y="195.29651"
         style="fill:#333333;stroke-width:0.26458332"
         id="tspan817" /><tspan
         sodipodi:role="line"
         x="15.501633"
         y="208.52568"
         style="fill:#333333;stroke-width:0.26458332"
         id="tspan819" /></text>
    <flowRoot
       xml:space="preserve"
       id="flowRoot841"
       style="fill:black;fill-opacity:1;stroke:none;font-family:sans-serif;font-style:normal;font-weight:normal;font-size:40px;line-height:1.25;letter-spacing:0px;word-spacing:0px"><flowRegion
         id="flowRegion843"><rect
           id="rect845"
           width="1143.4927"
           height="763.67535"
           x="-175.76654"
           y="5.290967" /></flowRegion><flowPara
         id="flowPara847" /></flowRoot>    <text
       xml:space="preserve"
       style="font-style:normal;font-weight:normal;font-size:16.93333244px;line-height:1.25;font-family:sans-serif;letter-spacing:0px;word-spacing:0px;fill:#333333;fill-opacity:1;stroke:none;stroke-width:0.26458332"
       x="19.175907"
       y="240.01826"
       id="text5696-1"><tspan
         sodipodi:role="line"
         id="tspan5694-8"
         x="19.175907"
         y="240.01826"
         style="fill:#333333;stroke-width:0.26458332">Plattformen</tspan></text>
    <text
       xml:space="preserve"
       style="font-style:normal;font-weight:normal;font-size:10.58333302px;line-height:1.25;font-family:sans-serif;letter-spacing:0px;word-spacing:0px;fill:#333333;fill-opacity:1;stroke:none;stroke-width:0.26458332"
       x="16.23595"
       y="261.13254"
       id="text6322-9"><tspan
         sodipodi:role="line"
         x="16.23595"
         y="261.13254"
         style="fill:#333333;stroke-width:0.26458332"
         id="tspan825-0">- Bilder : WikiMedia Commons,</tspan><tspan
         sodipodi:role="line"
         x="16.23595"
         y="274.36169"
         style="fill:#333333;stroke-width:0.26458332"
         id="tspan918">  </tspan><tspan
         sodipodi:role="line"
         x="16.23595"
         y="287.59088"
         style="fill:#333333;stroke-width:0.26458332"
         id="tspan831-2">- Videos : Youtube, Vimeo, </tspan><tspan
         sodipodi:role="line"
         x="16.23595"
         y="300.82004"
         style="fill:#333333;stroke-width:0.26458332"
         id="tspan925">  TIB AV-Portal</tspan><tspan
         sodipodi:role="line"
         x="16.23595"
         y="314.04919"
         style="fill:#333333;stroke-width:0.26458332"
         id="tspan833-9" /><tspan
         sodipodi:role="line"
         x="16.23595"
         y="327.27838"
         style="fill:#333333;stroke-width:0.26458332"
         id="tspan839-9">- Texte : GitLab/GitHub, Wiki, </tspan><tspan
         sodipodi:role="line"
         x="16.23595"
         y="340.50754"
         style="fill:#333333;stroke-width:0.26458332"
         id="tspan932">  Webseite </tspan><tspan
         sodipodi:role="line"
         x="16.23595"
         y="353.73669"
         style="fill:#333333;stroke-width:0.26458332"
         id="tspan817-5" /><tspan
         sodipodi:role="line"
         x="16.23595"
         y="366.96588"
         style="fill:#333333;stroke-width:0.26458332"
         id="tspan819-1" /></text>
  </g>
</svg>
