<?xml version="1.0" encoding="UTF-8" standalone="no"?>
<!-- Created with Inkscape (http://www.inkscape.org/) -->

<svg
   xmlns:dc="http://purl.org/dc/elements/1.1/"
   xmlns:cc="http://creativecommons.org/ns#"
   xmlns:rdf="http://www.w3.org/1999/02/22-rdf-syntax-ns#"
   xmlns:svg="http://www.w3.org/2000/svg"
   xmlns="http://www.w3.org/2000/svg"
   xmlns:xlink="http://www.w3.org/1999/xlink"
   xmlns:sodipodi="http://sodipodi.sourceforge.net/DTD/sodipodi-0.dtd"
   xmlns:inkscape="http://www.inkscape.org/namespaces/inkscape"
   width="210mm"
   height="297mm"
   viewBox="0 0 210 297"
   version="1.1"
   id="svg1414"
   inkscape:version="0.92.4 (5da689c313, 2019-01-14)"
   sodipodi:docname="wuerfel-unten.svg">
  <defs
     id="defs1408" />
  <sodipodi:namedview
     id="base"
     pagecolor="#ffffff"
     bordercolor="#666666"
     borderopacity="1.0"
     inkscape:pageopacity="0.0"
     inkscape:pageshadow="2"
     inkscape:zoom="0.98994949"
     inkscape:cx="421.34961"
     inkscape:cy="645.73005"
     inkscape:document-units="mm"
     inkscape:current-layer="layer1"
     showgrid="false"
     inkscape:window-width="1920"
     inkscape:window-height="986"
     inkscape:window-x="-11"
     inkscape:window-y="-11"
     inkscape:window-maximized="1" />
  <metadata
     id="metadata1411">
    <rdf:RDF>
      <cc:Work
         rdf:about="">
        <dc:format>image/svg+xml</dc:format>
        <dc:type
           rdf:resource="http://purl.org/dc/dcmitype/StillImage" />
        <dc:title />
      </cc:Work>
    </rdf:RDF>
  </metadata>
  <g
     inkscape:label="Ebene 1"
     inkscape:groupmode="layer"
     id="layer1">
    <rect
       style="fill:#333333;fill-opacity:1;stroke-width:0.27806848"
       id="rect1382"
       width="210.34111"
       height="210.34111"
       x="0.4009099"
       y="-0.3373456"
       inkscape:export-xdpi="96.449997"
       inkscape:export-ydpi="96.449997" />
    <text
       xml:space="preserve"
       style="font-style:normal;font-weight:normal;font-size:16.93333244px;line-height:1.25;font-family:sans-serif;letter-spacing:0px;word-spacing:0px;fill:#000000;fill-opacity:1;stroke:none;stroke-width:0.26458332"
       x="18.441595"
       y="28.661394"
       id="text5696"
       inkscape:export-xdpi="96.449997"
       inkscape:export-ydpi="96.449997"><tspan
         sodipodi:role="line"
         id="tspan5694"
         x="18.441595"
         y="28.661394"
         style="fill:#e9ddaf;stroke-width:0.26458332">Mehr Infos unter</tspan></text>
    <image
       y="40.824181"
       x="34.078888"
       id="image15063"
       xlink:href="data:image/png;base64,iVBORw0KGgoAAAANSUhEUgAAASwAAAEsCAIAAAD2HxkiAAAAA3NCSVQICAjb4U/gAAAJrUlEQVR4 nO3dQW7izBYGUIIeWUImyf5Xlll2AFLyBtaPLEjc2JTru4ZzBq2ESmOa6s/l6xvjl5+fnx2Qs0+/ AHh2QghhQghhQghhQghhQghhQghhQghhQghhQghhQghhQghhQghhQghhQghhQghhQghhQghhQghh QghhQghhQghhQghhQghhQghhQghhQghhQghhQghhQghhQghhQghhQghhQghhQghhQghh/+u8vbe3 t6+vr84bbeXn5+evoZeXF3/r7FFneSVWQgjrHcKJPSsPwyzPYiWEsN4h7H/ATX9meRYrIYSpCWnP LM9iJYQwNSHtmeVZejfrJ3x+fr69vR0Oh9PpNDwy/vri2/WG3t/fFzSal/W7JzT/W0WCselZXkm5 w9Hx2zcxdPFj9w/Rk1ke670STuyq9/v94XC4ePD6kfUM23JS4X5meZZCK+H39/evj59Op792ZhdD F18vGypy2PaozPK1Widmzu/U+R0cPzI9dP3n4iHuZJZnKXRi5ux6Sn79tuGG1nhyppnls4o14Y0V wsWPjb+9fWjWK+RGZnmWQjXh/W4853b7EAU93iwXqgm/v79/PUS5rrCvK4fx6OKh4fFSJftGmeVZ 6taEp9Pp3Fp9fX1tu4nj8Th+/vs1P7xZ9r9k4mUse4Xr/Wfd4iyvpNzhaM/3q37J/qjM8ljFEzNj K7VxJ562VMm+UWZ5lkIr4UQbt/m2/to7VqsWHo9ZvlboxMxuslfb3CbauBtllmcptBKe/dXGXW9D HbbFBbN8VrEm7PDrvFupFjbKLM9ScSXsrObekbYqz3KhmnCijdv8ZWyljbtRZnmWbTTrV9pK/Tbu r5p/oH3zbd3CLJ+VOxzVxn0GZnms4omZsSdv426UWZ6l3Eo4SO0p6cksDyqemLn4c6WS/foopWDJ vlFmeZaKJ2a6qV8tcL/6s1yxJpx1ifQyW6kWNsosz1K0Juyp5t6RtirPcsWacKeNu3FmeZaKNeGD tXGbXyO/6Zdx9mCzfI9yh6PauM/ALI9VPDEz9uQl+0aZ5VnKrYQDbdxnYJYHFU/MaONunVmepeKJ mW7qVwvcr/4sV6wJtXG3zizPUrQm7Knm3pG2Ks9yxZpwp427cWZ5loo14XUb93g87lrfzbxtG7dn K7xa232ZLc7ySsodjk68XxM7zuZDrMosj1U8MTPW827mg2orxhaZ5VnKrYSDG/eU10N/jU4PzX15 NGGWB71Xwn+W7Ocj+Ouj+VuGBrcPnR88/1ipkn2jzPIsRVfCQYeSoPIO8kmY5Yo1Yc8K4bplXKpa 2CizPEvplRCeQbmacL/f7/67i91+vx/fzm69oeGL4etS1cJGmeVZCjXrPz4+0i9hueYfF7/sA+17 bmuZTc/yShyOQljvEJYqiFmJWZ7FSghhha6i4GGY5VmshBCmJqQ9szyLlRDC1IS0Z5ZnefF+BTW/ +3zztrv/Hh04HIUwIYQwIYQwIYQwIYQwIYQwIYQwIYSwQh/01Fzzj4vvebV7kY78pj+ov+d83cNK CGFCCGFCCGFCCGFCCGFCCGFCCGFCCGGFPga/Z5O0VK/2V/WvrF/2hPXf+f6shBAmhBAmhBAmhBAm hBAmhBAmhBAmhBDWu1lf5GLnR21qF7nAv7nHvs2TlRDChBDChBDChBDChBDChBDChBDChBDCtvEx +EX6+BN6foT7MkV+CaFni7/5i1+JlRDChBDChBDChBDChBDChBDChBDChBDCtnFl/TI9G7L1+8LL XmH9San/zv+TlRDChBDChBDChBDChBDChBDChBDChBDCXrZ+o/D6n9Pe81L9nne6L3Irga3/B95Z CSFOCCFMCCFMCCFMCCFMCCFMCCFMCCGs95X1E4r0uyf0vO17/R508z5+zwvhS3X/rYQQJoQQJoQQ JoQQJoQQJoQQJoQQJoQQVuie9UXuPj+h52Xmzd+oIt3/Ih93UIqVEMKEEMKEEMKEEMKEEMKEEMKE EMKEEMIK3bN+Qv2L7ov0hYtcMF7kMw16PuE9rIQQJoQQJoQQJoQQJoQQJoQQJoQQJoQQtvl71hfR /C7tPbfV88VPqN/iX4mVEMKEEMKEEMKEEMKEEMKEEMKEEMKEEMJ6X1n/9vb29fXVeaOtNL/FfM8L 4R/1M/wntlXklxD+yUoIYb1DWOSzWKAOKyGE9Q7hVn6nFrqxEkKYmhDCrIQQpiaEsN7N+gmfn59v b2+Hw+F0Og2PjL+++Ha9off3926/TtDz092bN7WXvYzmmv+mQX/lDkfHIZkYuvix+4cgpfdKOLFz 2u/3h8Ph4sHrR9YzbGsru08eRqGV8Pv7+9fHT6fTX0vWxdDF18uGVK10VuvEzDkP55yMH5keuv5z 8RD0VOjEzNl18H79tuGG1nhyuFHFmvDGOvDix8bf3j406xXCGgrVhPe78czq7UPQQaGa8Pv7+9cD 0evzKNf14Xh08dDwuBMzdFa3JjydTucG+uvra9tNHI/H8fOvqvn13UXa00WO23t+YsBKyh2O9jw4 dGKGCiqemBlbqVk/8bSl9pE8g0Ir4USzvvm2NOupo9CJmd1kR745zXqKKLQSnv3VrF9vQx22BX+p WBN2+KVtNSF1VFwJO7MGklWoJpxo1jd/GZr11LGNZv1KW2n4/M0PYpf1oLfSnp7rATryE8odjmrW 82wqnpgZ06zn4ZVbCQep9RD6q3hi5uLPlU7MXB+LOjFDRMUTM92oCamgYk0460L4ZdSE1FG0JuzJ GkhWxZpwp1nPM6lYE26xWd/csn1B86Z285cx4bFvTD+h3OGoZj3PpuKJmTEnZnh45VbCgWY9z6Pi iRnNep5KxRMz3agJqaBiTahZz1MpWhP2ZA0kq2JNuNOs55lUrAmvm/XH43HX+p713Zr1zXvQy66s n9B8v9Pznzyh57buUe5wdCIVE8tj8yHopuKJmbGe96wfODFDZ+VWwsGN6+H10F+j00NzXx401Hsl /OeJmXOddl2z3TI0uH3o/OD5x5yYobOiK+GgQ+FnGSSuYk3Ysw68/sUANSGdlV4J4RmUqwn3+/3u v3sV7vf78U0L1xsavhi+VhPSWaFm/cfHR/olrKLnZeZF/taEnpfqb4XDUQjrHcLH3qXBAlZCCCt0 FQU8JyshhKkJIcxKCGFqQgh7kQrIcjgKYUIIYUIIYUIIYUIIYUIIYUIIYUIIYUIIYUIIYUIIYUII YUIIYUIIYUIIYUIIYUIIYUIIYUIIYUIIYUIIYUIIYUIIYUIIYUIIYUIIYUIIYUIIYUIIYUIIYUII YUIIYUIIYUIIYUIIYUIIYUIIYf8HRqepF34RKAMAAAAASUVORK5CYII= "
       style="image-rendering:optimizeSpeed"
       preserveAspectRatio="none"
       height="79.375"
       width="79.375"
       inkscape:export-xdpi="96.449997"
       inkscape:export-ydpi="96.449997" />
    <flowRoot
       xml:space="preserve"
       id="flowRoot15066"
       style="fill:black;fill-opacity:1;stroke:none;font-family:sans-serif;font-style:normal;font-weight:normal;font-size:40px;line-height:1.25;letter-spacing:0px;word-spacing:0px"
       inkscape:export-xdpi="96.449997"
       inkscape:export-ydpi="96.449997"><flowRegion
         id="flowRegion15068"><rect
           id="rect15070"
           width="111.11678"
           height="135.36044"
           x="-54.548237"
           y="78.02195" /></flowRegion><flowPara
         id="flowPara15072" /></flowRoot>    <text
       xml:space="preserve"
       style="font-style:normal;font-weight:normal;font-size:10.58333302px;line-height:1.25;font-family:sans-serif;letter-spacing:0px;word-spacing:0px;fill:#000000;fill-opacity:1;stroke:none;stroke-width:0.26458332"
       x="9.0901775"
       y="53.715897"
       id="text6322-1"
       inkscape:export-xdpi="96.449997"
       inkscape:export-ydpi="96.449997"><tspan
         sodipodi:role="line"
         x="9.0901775"
         y="63.079666"
         style="fill:#e9ddaf;stroke-width:0.26458332"
         id="tspan6988-9" /><tspan
         sodipodi:role="line"
         x="9.0901775"
         y="76.30883"
         style="fill:#e9ddaf;stroke-width:0.26458332"
         id="tspan15088-8" /><tspan
         sodipodi:role="line"
         x="9.0901775"
         y="89.538002"
         style="fill:#e9ddaf;stroke-width:0.26458332"
         id="tspan15090-0" /><tspan
         sodipodi:role="line"
         x="9.0901775"
         y="102.76717"
         style="fill:#e9ddaf;stroke-width:0.26458332"
         id="tspan15092-2" /><tspan
         sodipodi:role="line"
         x="9.0901775"
         y="115.99633"
         style="fill:#e9ddaf;stroke-width:0.26458332"
         id="tspan15094-1" /><tspan
         sodipodi:role="line"
         x="9.0901775"
         y="129.22549"
         style="fill:#e9ddaf;stroke-width:0.26458332"
         id="tspan15096-5" /><tspan
         sodipodi:role="line"
         x="9.0901775"
         y="142.45467"
         style="fill:#e9ddaf;stroke-width:0.26458332"
         id="tspan15098-4">www.oer-wuerfel.de</tspan><tspan
         sodipodi:role="line"
         x="9.0901775"
         y="155.68382"
         style="fill:#e9ddaf;stroke-width:0.26458332"
         id="tspan887">https://www.unesco.de/bildung/</tspan><tspan
         sodipodi:role="line"
         x="9.0901775"
         y="168.91299"
         style="fill:#e9ddaf;stroke-width:0.26458332"
         id="tspan867">  open-educational-resources</tspan><tspan
         sodipodi:role="line"
         x="9.0901775"
         y="182.14217"
         style="fill:#e9ddaf;stroke-width:0.26458332"
         id="tspan869">https://www.un.org/</tspan><tspan
         sodipodi:role="line"
         x="9.0901775"
         y="195.37132"
         style="fill:#e9ddaf;stroke-width:0.26458332"
         id="tspan871">  sustainabledevelopment/education/</tspan></text>
  </g>
</svg>
